Interpretable Machine Learning
…
We can combine group operations with other verbs:

df %>% 
  group_by(Customer.ID) %>%
  summarise(Frequency = n()) %>% # count(*) in SQL
  filter(Frequency > 10)

## # A tibble: 137 x 2
##    Customer.ID Frequency
##          <int>     <int>
##  1         216        19
##  2         246        23
##  3         259        11
##  4         394        15
##  5         533        13
##  6         555        14
##  7         582        45
##  8         850        11
##  9         852        12
## 10         870        15
## # ... with 127 more rows
…
